Personal doc ~ chronic conditions
…
#unweighted rel risk estimates
rr_table_all_uw <- rr_all %>% 
      select(condition, age4, income, rel_risk_uw, rr_uw_lower, rr_uw_upper) %>% 
      arrange(condition, age4, income) %>% 
      rename(age=age4) %>% 
      dmap_if(~class(.x)=="numeric", ~round(., 3))

print(rr_table_all_uw)

## # A tibble: 132 x 6
##    condition    age income rel_risk_uw rr_uw_lower rr_uw_upper
##        <chr> <fctr> <fctr>       <dbl>       <dbl>       <dbl>
## 1  arthritis  40-54   <25K       1.964       1.888       2.043
## 2  arthritis  40-54 25-50K       1.765       1.668       1.869
## 3  arthritis  40-54   >50K       1.634       1.559       1.713
## 4  arthritis  55-64   <25K       1.696       1.639       1.756
## 5  arthritis  55-64 25-50K       1.634       1.557       1.715
## 6  arthritis  55-64   >50K       1.649       1.575       1.727
## 7  arthritis  65-75   <25K       1.505       1.443       1.570
## 8  arthritis  65-75 25-50K       1.494       1.416       1.577
## 9  arthritis  65-75   >50K       1.592       1.498       1.692
## 10 arthritis    75+   <25K       1.419       1.355       1.486
## # ... with 122 more rows
…
